	trigram	count
39	('lourdement', 'impacter', 'quotidien', 'travailleur', 'forçant')	9
38	('covid', 'lourdement', 'impacter', 'quotidien', 'travailleur')	9
36	('confinemer', 'stress', 'santé', 'mental', 'salarié')	11
35	('teletravail', 'confinemer', 'stress', 'santé', 'mental')	11
37	('stress', 'santé', 'mental', 'salarié', 'dégrade')	11
30	('techno', 'stress', 'parlement', 'européen', 'alerte')	12
31	('stress', 'parlement', 'européen', 'alerte', 'danger')	12
28	('prendre', 'soin', 'bien', 'salarié', 'distance')	12
33	('teletravail', 'numéro', 'vert', 'écouter', 'anxiété')	12
34	('numéro', 'vert', 'écouter', 'anxiété', 'salarié')	12
32	('parlement', 'européen', 'alerte', 'danger', 'teletravail')	12
29	('soin', 'bien', 'salarié', 'distance', 'teletravail')	12
20	('surgir', 'nouveau', 'interrogation', 'matière', 'teletravail')	15
27	('point', 'convier', 'faire', 'bien', 'assurer')	15
26	('faire', 'point', 'convier', 'faire', 'bien')	15
25	('assurance', 'faire', 'point', 'convier', 'faire')	15
24	('teletravail', 'assurance', 'faire', 'point', 'convier')	15
23	('matière', 'teletravail', 'assurance', 'faire', 'point')	15
22	('interrogation', 'matière', 'teletravail', 'assurance', 'faire')	15
21	('nouveau', 'interrogation', 'matière', 'teletravail', 'assurance')	15
19	('conséquence', 'surgir', 'nouveau', 'interrogation', 'matière')	15
17	('pandémie', 'vivre', 'conséquence', 'surgir', 'nouveau')	15
18	('vivre', 'conséquence', 'surgir', 'nouveau', 'interrogation')	15
16	('anxiété', 'numérique', 'salarier', 'accentuer', 'teletravail')	20
15	('tapez', 'pause', 'burnout', 'tombe', 'explique')	20
14	('fatiguer', 'tapez', 'pause', 'burnout', 'tombe')	20
13	('stresser', 'fatiguer', 'tapez', 'pause', 'burnout')	20
5	('pandémie', 'sap', 'moral', 'teletravail', 'perdre')	21
6	('sap', 'moral', 'teletravail', 'perdre', 'repère')	21
7	('moral', 'teletravail', 'perdre', 'repère', 'sentez')	21
8	('teletravail', 'perdre', 'repère', 'sentez', 'isolé')	21
10	('repère', 'sentez', 'isolé', 'stresser', 'fatiguer')	21
11	('sentez', 'isolé', 'stresser', 'fatiguer', 'tapez')	21
12	('isolé', 'stresser', 'fatiguer', 'tapez', 'pause')	21
9	('perdre', 'repère', 'sentez', 'isolé', 'stresser')	21
4	('surcharg', 'travail', 'dépression', 'révéler', 'grand')	30
3	('solitude', 'surcharg', 'travail', 'dépression', 'révéler')	30
2	('révéler', 'grand', 'étude', 'cgt', 'teletravail')	31
1	('dépression', 'révéler', 'grand', 'étude', 'cgt')	31
0	('travail', 'dépression', 'révéler', 'grand', 'étude')	31
